%YAML 1.1
%TAG !u! tag:unity3d.com,2011:
--- !u!114 &11400000
MonoBehaviour:
  m_ObjectHideFlags: 0
  m_CorrespondingSourceObject: {fileID: 0}
  m_PrefabInstance: {fileID: 0}
  m_PrefabAsset: {fileID: 0}
  m_GameObject: {fileID: 0}
  m_Enabled: 1
  m_EditorHideFlags: 0
  m_Script: {fileID: 11500000, guid: 17aadcf651a31cf418d0225a536811e4, type: 3}
  m_Name: ButtonsConfig
  m_EditorClassIdentifier: 
  LevelSize: 
  SelectedSprite: {fileID: 21300000, guid: 3deacae0cbe793b4c859f1412f42036a, type: 3}
  UnselectedSprite: {fileID: 21300000, guid: 9230293b2f95ced4bb6f89d33bd733fe, type: 3}
  SelectedScale: {x: 1.2, y: 1.2, z: 1}
  UnselectedScale: {x: 1, y: 1, z: 1}
